amarok
30
- - - - - - - - - - - X X X X X X X X - - - - - - - - - - -
- - - - - - - - - X X X X X X X X X X X X X - - - - - - - -
- - - - - - - X X X - - - - - - - - - - X X X X - - - - - -
- - - - - - X X - - - - - - - - - - - - - - X X X - - - - -
- - - - - X X - - - - - - - - - - - - - - - - - X X - - - -
- - - X X X - - - - - - - - - - - - - - - - - - - X X - - -
- - - X X - - - - - - - - - - - - - - - - X X - - - X X - -
- - X X - - - - - - - - - - - - - - - - X X X - - - X X - -
- - X - - - - - - - - - - - - - - - - X X X X X - - - X X -
- X X - - - - - - - - - - - - - - X X X X X X X - - - - X X
- X - - - - - - - - - - - - - - X X X X X X X - - - - - X X
X X - - - - - - - - - - X X X X X X X X X X - - - - - - - X
X X - - - - - - - - - X X X X X X X X X X X - - - - - - - X
X X - - - - - - - - X X X X - X X X X X X X X X X - - - - X
X X - - - - - - - X X X - - X X X X X X X X X X X - - - - X
X X - - - - X X X X X X X X X X X X X X X X X X - - - - - X
X X - - - X X X X X X X X X X X X X X X X X - - - - - - - X
X X - X X X X X X X X X X X X X X X X X X - - - - - - - - X
X X X X X X X X X X X X X X X X X X X X - - - - - - - - - X
- X X X X X X X X X X X X X X X X X X X - - - - - - - - X X
- X X X X X X X X X X X X X X X X X X X - - - - - - - - X X
- X X - X X X X X X X X X X X X X X X - - - - - - - - - X -
- - X X - X X X X X X X X X X X X X X - - - - - - - - X X -
- - X X X X X X X X X X X X X X X X X - - - - - - - X X - -
- - - X X X X X X X X X X X X X X X X - - - - - - - X X - -
- - - - X X X X X X X X X X X X X X X - - - - - - X X - - -
- - - - - X X X X X X X X X X X X X X - - - - X X X - - - -
- - - - - - X X X X X X - - - - - X X - - - X X - - - - - -
- - - - - - - - X X X - - - - - - X X - X X X - - - - - - -
- - - - - - - - - X X X X X X X X X X X X - - - - - - - - -
