bonhomme
32
X X X X X X X X X X X X X X - X X X - X X X X X X X X X X X
X - - - - - - - - - - - - - X X - X - - - - - - - - - - - X
X - - - - - - - - - - - - - X X - X - - - - - - - - - - - X
X - - - - - - - - - - - - X X X X X - - - - - - - - - - - X
X - - - - - - - - - - - X X - - - X X - - - - - - - - - - X
X - - - - - - - - - - X X - - - - - X X - - - - - - - - - X
X - - - - - - - - - X X X X X X X X - X - - - - - - - - - X
X - - - - - - - - X X X X X X X X X X X - - - - - - - - - X
X - - - - - - - X X X X X X X X X X X X X - - - - - - - - X
X - - - - - - - X X X X X X - X X X X X X - - - - - - - - X
X - - - - - - - X X X - X X - X X X X X X - - - - - - - - X
X - - - - - - - - X X - X X X X - - - X - - - - - - - - - X
X - - - - - - - - - X - - X X X - - - X - - - - - X - - - X
- - - X X - - - - - X - X X X X X X X - - - - - - X X - - -
X X - - X - - - - - X X X X X X X X X - - - - - - X X - X X
X X X X X - - - - X X X X X - X X - X X X - - - - X X X X X
X X X X X X - - X X - - - X X - - - - - X X - - - X X X X X
- - - - X X X X X - - - - X X - - - - - - X X X X X X - - -
X - - - - X X X X - - - - X X X - - - - - - X X X X - - - X
X - - - - - - X - - - - X X X X - - - - - - X X - - - - - X
X - - - - - X X - - - - - X X - - - - - - - - X - - - - - X
X - - - - - X - - - - - - X X - - - - - - - - X - - - - - X
X - - - - - X - - - - - X X X X - - - - - - - X X - - - - X
X - - - - - X - - - - - X X X X - - - - - - - X X - - - - X
X - - - - - X - - - - - - X - - - - - - - - - X X - - - - X
X - - - - - X - - - - - X X X - - - - - - - - X X - - - - X
X - - - - - X - - - - - X X X - - - - - - - - X - - - - - X
X - - - - - X X - - - - X X X - - - - - - - - X - - - - - X
X - - - - - - X - - - - - - - - - - - - - - X X - - - - - X
X - - - - - - X X - - - - - - - - - - - - - X - - - - - - X
X - - - - - - - X - X X X X X X X - - - - X X - - - - - - X
X X X X X X X - X X X X X X X X X X X X X X - X X X X X X X
