qrcode
29
X X X X X X X - - X - - X X - - X X X - - - X X X X X X X
X - - - - - X - X X X - X X - - X X - - - - X - - - - - X
X - X X X - X - X - - - - - - - X - - X - - X - X X X - X
X - X X X - X - X - X - - X X X X X X X - - X - X X X - X
X - X X X - X - - X X - - - X - - X X X X - X - X X X - X
X - - - - - X - - X X X - - - - X X - - X - X - - - - - X
X X X X X X X - X - X - X - X - X - X - X - X X X X X X X
- - - - - - - - X X - - X - - - X - - X X - - - - - - - -
X - - - - - X - X - - X - X - - X X - X - X X - - X X X -
X - X - X X - X - - X X X - - X - - X X - X - X X - X X -
X - X X - X X - X - - - X - - X X X X - - X - - X - - - -
X - X - - - - - X X X X X - X X - - - X X - X - X - - - -
X - - - - - X - - - - - - - X X X - - - X - X - - - - - X
X - - X X - - X X - - X - - X X X X X X - - X X X - X X X
X - - X - X X - - X X X - X - X X X - - - X X - - - X - -
X - X - X X - X X - - - - - - - X - - X - X - X - - X - X
- X - X X - X X X - X X X - - X X X - X - - - - - - X - -
- X - - X - - - X - - - X X - X X X X X X - X - X X X X X
- X X - X X X X - X - - - - - X - - - X - - - - - - - - X
- X - - - X - - - X X - - X - X X - X - - - - X X - - - -
- X - - - X X X - X - X - X X - - X - X X X X X X - X X X
- - - - - - - - X - X X - - X X X - - - X - - - X X - - -
X X X X X X X - - - X - X - - X - - - X X - X - X X X - -
X - - - - - X - - X X - - - X - X - X X X - - - X X - - -
X - X X X - X - - X X X - X X X - - - X X X X X X - - X X
X - X X X - X - - - - X X - X X X - X X X X - X - X - - X
X - X X X - X - - X - - X - - X X - - X - X X X X X X X -
X - - - - - X - - X - - X X - X X - - X - X - X - X X - X
X X X X X X X - X - X - X X X X X X - X - - X X X X X - -
