stack_overflow
40
X X X X X X X X X X X X X X X X X X X X - - - - X X X X - -
X X X X X X X X X X X X X X X X X X X - - - - - X X X X - -
X X X X X X X X X X X X X X X X X - - - - - - - X X X X - -
X X X X X X X X X X X X X X X X - - - - - - - - X X X X - -
X X X X X X X X X X X X X X X - X X - - - - - - X X X X - -
X X X X X X X X X X X X X X - X X X X - - - - - - X X X - -
X X X X X X X X X X X X X X - X X X X X - - - - - X X X X -
X X X X X X X X X X X X X - - X X X X X X - - - - X X X X -
X X X X X X X X X X X - - - - - X X X X X - - - - X X X X -
X X X X X X X X X X - - - - - - - X X X X X - - - - X X X -
X X X X X X X X X - - - - - - - - X X X X X X - - - X X X -
X X X X X X X X - X X X X - - - - - X X X X X - - - X X X -
X X X X X X X X - X X X X X X - - - - X X X X X - - X X X X
X X X X X X X - - X X X X X X X - - - - X X X X X - - X X X
X X X X X X X - - - - X X X X X X X - - - X X X X - - X X X
X X X X X X - - - - - - X X X X X X X - - - X X X X - X X X
X X X X X - - - - - - - - X X X X X X X X - X X X X - - - -
X X X X - - - - - - - - - - - X X X X X X - - - X - - - - -
X X X X - - X X X X - - - - - - - X X X X X X - - - - - - -
X X X - - - X X X X X X X - - - - - X X X X X - - - - - - -
X X - - - - X X X X X X X X X X X - - - X X - - - - - - - -
X - - - - - X X X X X X X X X X X X X X - - - - - - - - - -
- - - - - - - - - X X X X X X X X X X X X - - - - - - - - -
- - - - - - - - - - - - - - X X X X X X X - - - - - - - - -
X X X - - - - - - - - - - - - - - - X X - - X X X - - - - -
X X X - - - - - - - - - - - - - - - - - - - X X X - - - - -
X X X - X X X X X X X X X X - - - - - - - - X X X - - - - -
X X X - X X X X X X X X X X X X X X X X - - X X X - - - - -
X X X - - - - - X X X X X X X X X X X X - - X X X - - - - -
X X X - - - - - - - - - - - - - - X X X - - X X X - - - - -
X X X - - - - - - - - - - - - - - - - - - - X X X - - - - -
X X X - - - - - - - - - - - - - - - - - - - X X X - - - - -
X X X - X X X X X X X X X X X X X X X X - - X X X - - - - -
X X X - X X X X X X X X X X X X X X X X - - X X X - - - - -
X X X - - - - - - - - - - - - - - - - X - - X X X - - - - -
X X X - - - - - - - - - - - - - - - - - - - X X X - - - - -
X X X - - - - - - - - - - - - - - - - - - - X X X - - - - -
X X X X X X X X X X X X X X X X X X X X X X X X X - - - - -
X X X X X X X X X X X X X X X X X X X X X X X X X - - - - -
X X X X X X X X X X X X X X X X X X X X X X X X X - - - - -
